[
    {
        "name": "Managua",
        "local_names": {
            "ru": "Манагуа",
            "ja": "マナグア",
            "fy": "Managûa",
            "mn": "Манагуа",
            "ar": "ماناغوا",
            "sv": "Managua",
            "th": "มานากัว",
            "bg": "Манагуа",
            "lt": "Managva",
            "be": "Манагуа",
            "mr": "मानाग्वा",
            "az": "Manaqua",
            "es": "Managua (Municipio)",
            "en": "Managua",
            "he": "מנגואה",
            "lv": "Managva",
            "am": "ማናጓ",
            "pl": "Managua",
            "ka": "მანაგუა",
            "de": "Managua",
            "hy": "Մանագուա",
            "ug": "ماناگۇئا",
            "bo": "མ་ན་གུ་འ།",
            "ur": "ماناگوا",
            "eo": "Managvo",
            "is": "Managva",
            "ko": "마나과",
            "ht": "Managoua",
            "uk": "Манагуа",
            "oc": "Managua",
            "ta": "மனாகுவா",
            "el": "Μανάγκουα",
            "mk": "Манагва",
            "fr": "Managua",
            "fa": "ماناگوآ",
            "pt": "Manágua",
            "zh": "馬那瓜",
            "sr": "Манагва",
            "hu": "Managua",
            "os": "Манагуæ"
        },
        "lat": 12.1459907,
        "lon": -86.2746665,
        "country": "NI",
        "state": "Departamento de Managua"
    }
]
